{"history":[{"id":64486213,"mode":"ranked","hero":"Warlock","hero_deck":"Reno","opponent":"Hunter","opponent_deck":"Midrange","coin":true,"result":"win","duration":437,"note":null,"added":"2017-02-23T07:53:02.000Z","card_history":[],"rank":null,"legend":null},{"id":64485761,"mode":"ranked","hero":"Warlock","hero_deck":null,"opponent":"Shaman","opponent_deck":"Jade","coin":false,"result":"loss","duration":1215,"note":null,"added":"2017-02-23T07:45:28.000Z","card_history":[],"rank":null,"legend":null},{"id":64416190,"mode":"ranked","hero":"Warlock","hero_deck":null,"opponent":"Warlock","opponent_deck":"Reno","coin":true,"result":"loss","duration":630,"note":null,"added":"2017-02-22T18:28:38.000Z","card_history":[],"rank":null,"legend":null}],"meta":{"current_page":4,"next_page":null,"prev_page":3,"total_pages":4,"total_items":48}}
